R for Data Science (Hadley Wickham) - Chapter 5 Exercises
…
# 2
# Another useful dplyr filtering helper is between(). What does it do? Can you use it to simplify the code needed to answer the previous challenges?
# I used it in previous answers already

# 3 
# How many flights have a missing dep_time? What other variables are missing? What might these rows represent?
na_dep_flights <- flights %>% filter(is.na(dep_time))
nrow(na_dep_flights)

## [1] 8255

na_dep_flights

## # A tibble: 8,255 x 19
##     year month   day dep_time sched_dep_time dep_delay arr_time
##    <int> <int> <int>    <int>          <int>     <dbl>    <int>
##  1  2013     1     1       NA           1630        NA       NA
##  2  2013     1     1       NA           1935        NA       NA
##  3  2013     1     1       NA           1500        NA       NA
##  4  2013     1     1       NA            600        NA       NA
##  5  2013     1     2       NA           1540        NA       NA
##  6  2013     1     2       NA           1620        NA       NA
##  7  2013     1     2       NA           1355        NA       NA
##  8  2013     1     2       NA           1420        NA       NA
##  9  2013     1     2       NA           1321        NA       NA
## 10  2013     1     2       NA           1545        NA       NA
## # ... with 8,245 more rows, and 12 more variables: sched_arr_time <int>,
## #   arr_delay <dbl>, carrier <chr>, flight <int>, tailnum <chr>,
## #   origin <chr>, dest <chr>, air_time <dbl>, distance <dbl>, hour <dbl>,
## #   minute <dbl>, time_hour <dttm>
# These look like canceled flights

# 4
# Why is NA ^ 0 not missing? Why is NA | TRUE not missing? Why is FALSE & NA not missing? Can you figure out the general rule? (NA * 0 is a tricky counterexample!)

# X ^ 0 = 1, even if X is unknown
# TRUE | X is always true, even if X is unknown
# FALSE | X may or may not be true, depending on the value of X, so the expression is unknown

5.3.1 Exercises

# 1 How could you use arrange() to sort all missing values to the start? (Hint: use is.na()).
flights %>% arrange(desc(is.na(dep_time)),hour)

## # A tibble: 336,776 x 19
##     year month   day dep_time sched_dep_time dep_delay arr_time
##    <int> <int> <int>    <int>          <int>     <dbl>    <int>
##  1  2013     7    27       NA            106        NA       NA
##  2  2013    11     1       NA            517        NA       NA
##  3  2013     2     9       NA            540        NA       NA
##  4  2013     2     9       NA            540        NA       NA
##  5  2013     2     9       NA            515        NA       NA
##  6  2013     2     9       NA            530        NA       NA
##  7  2013     2     9       NA            500        NA       NA
##  8  2013     3     7       NA            540        NA       NA
##  9  2013     5    24       NA            545        NA       NA
## 10  2013     7     2       NA            540        NA       NA
## # ... with 336,766 more rows, and 12 more variables: sched_arr_time <int>,
## #   arr_delay <dbl>, carrier <chr>, flight <int>, tailnum <chr>,
## #   origin <chr>, dest <chr>, air_time <dbl>, distance <dbl>, hour <dbl>,
## #   minute <dbl>, time_hour <dttm>

# 2 Sort flights to find the most delayed flights. Find the flights that left earliest.
flights %>% arrange(desc(dep_delay))

## # A tibble: 336,776 x 19
##     year month   day dep_time sched_dep_time dep_delay arr_time
##    <int> <int> <int>    <int>          <int>     <dbl>    <int>
##  1  2013     1     9      641            900      1301     1242
##  2  2013     6    15     1432           1935      1137     1607
##  3  2013     1    10     1121           1635      1126     1239
##  4  2013     9    20     1139           1845      1014     1457
##  5  2013     7    22      845           1600      1005     1044
##  6  2013     4    10     1100           1900       960     1342
##  7  2013     3    17     2321            810       911      135
##  8  2013     6    27      959           1900       899     1236
##  9  2013     7    22     2257            759       898      121
## 10  2013    12     5      756           1700       896     1058
## # ... with 336,766 more rows, and 12 more variables: sched_arr_time <int>,
## #   arr_delay <dbl>, carrier <chr>, flight <int>, tailnum <chr>,
## #   origin <chr>, dest <chr>, air_time <dbl>, distance <dbl>, hour <dbl>,
## #   minute <dbl>, time_hour <dttm>

flights %>% arrange(dep_delay)

## # A tibble: 336,776 x 19
##     year month   day dep_time sched_dep_time dep_delay arr_time
##    <int> <int> <int>    <int>          <int>     <dbl>    <int>
##  1  2013    12     7     2040           2123     -43.0       40
##  2  2013     2     3     2022           2055     -33.0     2240
##  3  2013    11    10     1408           1440     -32.0     1549
##  4  2013     1    11     1900           1930     -30.0     2233
##  5  2013     1    29     1703           1730     -27.0     1947
##  6  2013     8     9      729            755     -26.0     1002
##  7  2013    10    23     1907           1932     -25.0     2143
##  8  2013     3    30     2030           2055     -25.0     2213
##  9  2013     3     2     1431           1455     -24.0     1601
## 10  2013     5     5      934            958     -24.0     1225
## # ... with 336,766 more rows, and 12 more variables: sched_arr_time <int>,
## #   arr_delay <dbl>, carrier <chr>, flight <int>, tailnum <chr>,
## #   origin <chr>, dest <chr>, air_time <dbl>, distance <dbl>, hour <dbl>,
## #   minute <dbl>, time_hour <dttm>

# 3 Sort flights to find the fastest flights.
flights %>% arrange(air_time)

## # A tibble: 336,776 x 19
##     year month   day dep_time sched_dep_time dep_delay arr_time
##    <int> <int> <int>    <int>          <int>     <dbl>    <int>
##  1  2013     1    16     1355           1315     40.0      1442
##  2  2013     4    13      537            527     10.0       622
##  3  2013    12     6      922            851     31.0      1021
##  4  2013     2     3     2153           2129     24.0      2247
##  5  2013     2     5     1303           1315    -12.0      1342
##  6  2013     2    12     2123           2130    - 7.00     2211
##  7  2013     3     2     1450           1500    -10.0      1547
##  8  2013     3     8     2026           1935     51.0      2131
##  9  2013     3    18     1456           1329     87.0      1533
## 10  2013     3    19     2226           2145     41.0      2305
## # ... with 336,766 more rows, and 12 more variables: sched_arr_time <int>,
## #   arr_delay <dbl>, carrier <chr>, flight <int>, tailnum <chr>,
## #   origin <chr>, dest <chr>, air_time <dbl>, distance <dbl>, hour <dbl>,
## #   minute <dbl>, time_hour <dttm>

# 4 Which flights travelled the longest? Which travelled the shortest?
flights %>% arrange(distance)

## # A tibble: 336,776 x 19
##     year month   day dep_time sched_dep_time dep_delay arr_time
##    <int> <int> <int>    <int>          <int>     <dbl>    <int>
##  1  2013     7    27       NA            106     NA          NA
##  2  2013     1     3     2127           2129   -  2.00     2222
##  3  2013     1     4     1240           1200     40.0      1333
##  4  2013     1     4     1829           1615    134        1937
##  5  2013     1     4     2128           2129   -  1.00     2218
##  6  2013     1     5     1155           1200   -  5.00     1241
##  7  2013     1     6     2125           2129   -  4.00     2224
##  8  2013     1     7     2124           2129   -  5.00     2212
##  9  2013     1     8     2127           2130   -  3.00     2304
## 10  2013     1     9     2126           2129   -  3.00     2217
## # ... with 336,766 more rows, and 12 more variables: sched_arr_time <int>,
## #   arr_delay <dbl>, carrier <chr>, flight <int>, tailnum <chr>,
## #   origin <chr>, dest <chr>, air_time <dbl>, distance <dbl>, hour <dbl>,
## #   minute <dbl>, time_hour <dttm>

flights %>% arrange(desc(distance))

## # A tibble: 336,776 x 19
##     year month   day dep_time sched_dep_time dep_delay arr_time
##    <int> <int> <int>    <int>          <int>     <dbl>    <int>
##  1  2013     1     1      857            900  -   3.00     1516
##  2  2013     1     2      909            900      9.00     1525
##  3  2013     1     3      914            900     14.0      1504
##  4  2013     1     4      900            900      0        1516
##  5  2013     1     5      858            900  -   2.00     1519
##  6  2013     1     6     1019            900     79.0      1558
##  7  2013     1     7     1042            900    102        1620
##  8  2013     1     8      901            900      1.00     1504
##  9  2013     1     9      641            900   1301        1242
## 10  2013     1    10      859            900  -   1.00     1449
## # ... with 336,766 more rows, and 12 more variables: sched_arr_time <int>,
## #   arr_delay <dbl>, carrier <chr>, flight <int>, tailnum <chr>,
## #   origin <chr>, dest <chr>, air_time <dbl>, distance <dbl>, hour <dbl>,
## #   minute <dbl>, time_hour <dttm>

5.4.1 Exercises

# 1 Brainstorm as many ways as possible to select dep_time, dep_delay, arr_time, and arr_delay from flights.

# 2 What happens if you include the name of a variable multiple times in a select() call?
# duplicates are removed

# 3 What does the one_of() function do? Why might it be helpful in conjunction with this vector?

vars <- c("year", "month", "day", "dep_delay", "arr_delay")

select(flights, one_of(vars))

## # A tibble: 336,776 x 5
##     year month   day dep_delay arr_delay
##    <int> <int> <int>     <dbl>     <dbl>
##  1  2013     1     1      2.00     11.0 
##  2  2013     1     1      4.00     20.0 
##  3  2013     1     1      2.00     33.0 
##  4  2013     1     1     -1.00    -18.0 
##  5  2013     1     1     -6.00    -25.0 
##  6  2013     1     1     -4.00     12.0 
##  7  2013     1     1     -5.00     19.0 
##  8  2013     1     1     -3.00    -14.0 
##  9  2013     1     1     -3.00    - 8.00
## 10  2013     1     1     -2.00      8.00
## # ... with 336,766 more rows

# one_of() allows you to specify variable names
# You can choose multiple columns that are not in order

# 4 Does the result of running the following code surprise you? How do the select helpers deal with case by default? How can you change that default?

select(flights, contains("TIME"))

## Warning in as.POSIXlt.POSIXct(x, tz): unknown timezone 'default/America/
## Los_Angeles'

## # A tibble: 336,776 x 6
##    dep_time sched_dep_time arr_time sched_arr_time air_time
##       <int>          <int>    <int>          <int>    <dbl>
##  1      517            515      830            819    227  
##  2      533            529      850            830    227  
##  3      542            540      923            850    160  
##  4      544            545     1004           1022    183  
##  5      554            600      812            837    116  
##  6      554            558      740            728    150  
##  7      555            600      913            854    158  
##  8      557            600      709            723     53.0
##  9      557            600      838            846    140  
## 10      558            600      753            745    138  
## # ... with 336,766 more rows, and 1 more variable: time_hour <dttm>
…
## # A tibble: 336,776 x 0

5.5.2 Exercises

# 1 Currently dep_time and sched_dep_time are convenient to look at, but hard to compute with because theyre not really continuous numbers. Convert them to a more convenient representation of number of minutes since midnight.
t <- (flights %>% 
   mutate(
     hour = dep_time %/% 100,
     minute = dep_time %% 100,
     dep_time = hour * 60 + minute
   )
)
t

## # A tibble: 336,776 x 19
##     year month   day dep_time sched_dep_time dep_delay arr_time
##    <int> <int> <int>    <dbl>          <int>     <dbl>    <int>
##  1  2013     1     1      317            515      2.00      830
##  2  2013     1     1      333            529      4.00      850
##  3  2013     1     1      342            540      2.00      923
##  4  2013     1     1      344            545     -1.00     1004
##  5  2013     1     1      354            600     -6.00      812
##  6  2013     1     1      354            558     -4.00      740
##  7  2013     1     1      355            600     -5.00      913
##  8  2013     1     1      357            600     -3.00      709
##  9  2013     1     1      357            600     -3.00      838
## 10  2013     1     1      358            600     -2.00      753
## # ... with 336,766 more rows, and 12 more variables: sched_arr_time <int>,
## #   arr_delay <dbl>, carrier <chr>, flight <int>, tailnum <chr>,
## #   origin <chr>, dest <chr>, air_time <dbl>, distance <dbl>, hour <dbl>,
## #   minute <dbl>, time_hour <dttm>
…
# In the first chart, I saw a lot of negative values, which can be solved with abs()
#   Overnight flights will have arr_time < dep_time, causing a negative value
# I also see a bimodal distribution, with no flights in the middle time ranges
# I am guessing this is an artifact of the timezones sometimes being different between locations
# If you fly 3 hours, you either add or lose an hour due to timezone, making the data show either 2 or 4 hours depending on direction
# Timezone issues come later

# 3 Compare dep_time, sched_dep_time, and dep_delay. How would you expect those three numbers to be related?
select(flights, dep_time,sched_dep_time,dep_delay)

## # A tibble: 336,776 x 3
##    dep_time sched_dep_time dep_delay
##       <int>          <int>     <dbl>
##  1      517            515      2.00
##  2      533            529      4.00
##  3      542            540      2.00
##  4      544            545     -1.00
##  5      554            600     -6.00
##  6      554            558     -4.00
##  7      555            600     -5.00
##  8      557            600     -3.00
##  9      557            600     -3.00
## 10      558            600     -2.00
## # ... with 336,766 more rows
…
# 6 What trigonometric functions does R provide?
?Trig

5.6.7 Exercises

# 1 Brainstorm at least 5 different ways to assess the typical delay characteristics of a group of flights. Consider the following scenarios:

# A flight is 15 minutes early 50% of the time, and 15 minutes late 50% of the time.
flights %>% 
  group_by(tailnum) %>% 
  summarise(delay_med = median(arr_delay, na.rm = TRUE)) %>% 
  filter(delay_med > 15)

## # A tibble: 134 x 2
##    tailnum delay_med
##    <chr>       <dbl>
##  1 D942DN       23.0
##  2 N136DL      146  
##  3 N143DA       24.0
##  4 N152DL       24.0
##  5 N162PQ       62.5
##  6 N168AT       25.0
##  7 N169AT       16.0
##  8 N173AT       31.0
##  9 N175AT       28.0
## 10 N17627       15.5
## # ... with 124 more rows

flights %>% 
  group_by(tailnum) %>% 
  summarise(delay_med = median(arr_delay, na.rm = TRUE)) %>% 
  filter(delay_med < -15)

## # A tibble: 197 x 2
##    tailnum delay_med
##    <chr>       <dbl>
##  1 N14629      -15.5
##  2 N1501P      -16.5
##  3 N1602       -18.0
##  4 N1607B      -16.0
##  5 N1612T      -24.0
##  6 N16632      -20.0
##  7 N175DN      -15.5
##  8 N183DN      -18.0
##  9 N206UA      -20.0
## 10 N20904      -22.0
## # ... with 187 more rows

# A flight is always 10 minutes late.

flights %>% 
  group_by(tailnum) %>% 
  summarise(min_delay = min(arr_delay)) %>% 
  filter(min_delay > 10)

## # A tibble: 60 x 2
##    tailnum min_delay
##    <chr>       <dbl>
##  1 N136DL      146  
##  2 N143DA       24.0
##  3 N26906       19.0
##  4 N302AS       29.0
##  5 N303AS       46.0
##  6 N427SW      157  
##  7 N451UW       39.0
##  8 N521SW       88.0
##  9 N524SW       52.0
## 10 N569AS       15.0
## # ... with 50 more rows

# A flight is 30 minutes early 50% of the time, and 30 minutes late 50% of the time.
flights %>% 
  group_by(tailnum) %>% 
  summarise(delay_med = median(arr_delay, na.rm = TRUE)) %>% 
  filter(delay_med > 30)

## # A tibble: 65 x 2
##    tailnum delay_med
##    <chr>       <dbl>
##  1 N136DL      146  
##  2 N162PQ       62.5
##  3 N173AT       31.0
##  4 N240AT       38.0
##  5 N303AS       46.0
##  6 N305AS       90.5
##  7 N309AS       51.0
##  8 N323AS       38.0
##  9 N358SW       32.0
## 10 N388SW       31.5
## # ... with 55 more rows
…
5.7.1 Exercises

# 1 Refer back to the lists of useful mutate and filtering functions. Describe how each operation changes when you combine it with grouping.

# 2 Which plane (tailnum) has the worst on-time record?

flights %>% 
  group_by(tailnum) %>% 
  summarise(ontime_rate = mean(arr_delay <= 0, na.rm = TRUE),
            n = n()) %>% 
  arrange(ontime_rate, desc(n))

## # A tibble: 4,044 x 3
##    tailnum ontime_rate     n
##    <chr>         <dbl> <int>
##  1 N240AT            0     5
##  2 N392SW            0     5
##  3 N635SW            0     5
##  4 N295AT            0     4
##  5 N383SW            0     4
##  6 N610WN            0     4
##  7 N663UA            0     4
##  8 N870AS            0     4
##  9 N345SA            0     3
## 10 N617SW            0     3
## # ... with 4,034 more rows

# 3 What time of day should you fly if you want to avoid delays as much as possible?

# 4 For each destination, compute the total minutes of delay. For each, flight, compute the proportion of the total delay for its destination.

flights %>% 
  group_by(dest,tailnum) %>% 
  summarise(total_delay = sum(arr_delay,na.rm = TRUE)) %>%
  group_by(tailnum) %>% 
  mutate(rate_of_dest_delay = total_delay / sum(total_delay))

## # A tibble: 44,465 x 4
## # Groups:   tailnum [4,044]
##    dest  tailnum total_delay rate_of_dest_delay
##    <chr> <chr>         <dbl>              <dbl>
##  1 ABQ   N503JB        10.0             0.00474
##  2 ABQ   N504JB       -38.0            -0.0170 
##  3 ABQ   N505JB       -82.0            -0.0365 
##  4 ABQ   N506JB       -24.0            -0.00819
##  5 ABQ   N507JB         8.00            0.00321
##  6 ABQ   N508JB       - 6.00           -0.00254
##  7 ABQ   N509JB       -62.0            -0.0149 
##  8 ABQ   N510JB        16.0             0.00702
##  9 ABQ   N517JB       -63.0            -0.0191 
## 10 ABQ   N519JB        45.0             0.0154 
## # ... with 44,455 more rows
…
